…
Below is a table summarizing the number of items ordered from aisle. In
total, there are 134 aisles, with fresh vegetables and fresh fruits
holding the most items ordered by far.

``` r
instacart %>% 
  count(aisle) %>% 
  arrange(desc(n))
```

    ## # A tibble: 134 × 2
    ##    aisle                              n
    ##    <chr>                          <int>
    ##  1 fresh vegetables              150609
    ##  2 fresh fruits                  150473
    ##  3 packaged vegetables fruits     78493
    ##  4 yogurt                         55240
    ##  5 packaged cheese                41699
    ##  6 water seltzer sparkling water  36617
    ##  7 milk                           32644
    ##  8 chips pretzels                 31269
    ##  9 soy lactosefree                26240
    ## 10 bread                          23635
    ## # … with 124 more rows
…
``` r
accel_tidy %>%  
  mutate(total_activity = rowSums(accel_tidy[,c(4:1443)])) %>%
  select(total_activity, day_type, everything())
```

    ## # A tibble: 35 × 1,445
    ##    total_ac…¹ day_t…²  week day_id day   activ…³ activ…⁴ activ…⁵ activ…⁶ activ…⁷
    ##         <dbl> <chr>   <dbl>  <dbl> <chr>   <dbl>   <dbl>   <dbl>   <dbl>   <dbl>
    ##  1    480543. Weekday     1      1 Frid…    88.4    82.2    64.4    70.0    75.0
    ##  2     78828. Weekday     1      2 Mond…     1       1       1       1       1  
    ##  3    376254  Weekend     1      3 Satu…     1       1       1       1       1  
    ##  4    631105  Weekend     1      4 Sund…     1       1       1       1       1  
    ##  5    355924. Weekday     1      5 Thur…    47.4    48.8    46.9    35.8    49.0
    ##  6    307094. Weekday     1      6 Tues…    64.8    59.5    73.7    45.7    42.4
    ##  7    340115. Weekday     1      7 Wedn…    71.1   103.     68.5    45.4    37.8
    ##  8    568839  Weekday     2      8 Frid…   675     542    1010     779     509  
    ##  9    295431  Weekday     2      9 Mond…   291     335     393     335     263  
    ## 10    607175  Weekend     2     10 Satu…    64      11       1       1       1  
    ## # … with 25 more rows, 1,435 more variables: activity_6 <dbl>,
    ## #   activity_7 <dbl>, activity_8 <dbl>, activity_9 <dbl>, activity_10 <dbl>,
    ## #   activity_11 <dbl>, activity_12 <dbl>, activity_13 <dbl>, activity_14 <dbl>,
    ## #   activity_15 <dbl>, activity_16 <dbl>, activity_17 <dbl>, activity_18 <dbl>,
    ## #   activity_19 <dbl>, activity_20 <dbl>, activity_21 <dbl>, activity_22 <dbl>,
    ## #   activity_23 <dbl>, activity_24 <dbl>, activity_25 <dbl>, activity_26 <dbl>,
    ## #   activity_27 <dbl>, activity_28 <dbl>, activity_29 <dbl>, …
…
